{
   "count":964,
   "results":[
      {
         "name":"bulbasaur",
         
      },
      {
         "name":"ivysaur",
         
      },
      {
         "name":"venusaur",
         
      },
      {
         "name":"charmander",
         
      },
      {
         "name":"charmeleon",
         
      },
      {
         "name":"charizard",
         
      },
      {
         "name":"squirtle",
         
      },
      {
         "name":"wartortle",
         
      },
      {
         "name":"blastoise",
         
      },
      {
         "name":"caterpie",
         
      },
      {
         "name":"metapod",
         
      },
      {
         "name":"butterfree",
         
      },
      {
         "name":"weedle",
         
      },
      {
         "name":"kakuna",
         
      },
      {
         "name":"beedrill",
         
      },
      {
         "name":"pidgey",
         
      },
      {
         "name":"pidgeotto",
         
      },
      {
         "name":"pidgeot",
         
      },
      {
         "name":"rattata",
         
      },
      {
         "name":"raticate",
         
      },
      {
         "name":"spearow",
         "url":"https://pokeapi.co/api/v2/pokemon/21/"
      },
      {
         "name":"fearow",
         "url":"https://pokeapi.co/api/v2/pokemon/22/"
      },
      {
         "name":"ekans",
         "url":"https://pokeapi.co/api/v2/pokemon/23/"
      },
      {
         "name":"arbok",
         "url":"https://pokeapi.co/api/v2/pokemon/24/"
      },
      {
         "name":"pikachu",
         "url":"https://pokeapi.co/api/v2/pokemon/25/"
      },
      {
         "name":"raichu",
         "url":"https://pokeapi.co/api/v2/pokemon/26/"
      },
      {
         "name":"sandshrew",
         "url":"https://pokeapi.co/api/v2/pokemon/27/"
      },
      {
         "name":"sandslash",
         "url":"https://pokeapi.co/api/v2/pokemon/28/"
      },
      {
         "name":"nidoran-f",
         "url":"https://pokeapi.co/api/v2/pokemon/29/"
      },
      {
         "name":"nidorina",
         "url":"https://pokeapi.co/api/v2/pokemon/30/"
      },
      {
         "name":"nidoqueen",
         "url":"https://pokeapi.co/api/v2/pokemon/31/"
      },
      {
         "name":"nidoran-m",
         "url":"https://pokeapi.co/api/v2/pokemon/32/"
      },
      {
         "name":"nidorino",
         "url":"https://pokeapi.co/api/v2/pokemon/33/"
      },
      {
         "name":"nidoking",
         "url":"https://pokeapi.co/api/v2/pokemon/34/"
      },
      {
         "name":"clefairy",
         "url":"https://pokeapi.co/api/v2/pokemon/35/"
      },
      {
         "name":"clefable",
         "url":"https://pokeapi.co/api/v2/pokemon/36/"
      },
      {
         "name":"vulpix",
         "url":"https://pokeapi.co/api/v2/pokemon/37/"
      },
      {
         "name":"ninetales",
         "url":"https://pokeapi.co/api/v2/pokemon/38/"
      },
      {
         "name":"jigglypuff",
         "url":"https://pokeapi.co/api/v2/pokemon/39/"
      },
      {
         "name":"wigglytuff",
         "url":"https://pokeapi.co/api/v2/pokemon/40/"
      }
      {
   "count":964,
   "next":"https://pokeapi.co/api/v2/pokemon?offset=60&limit=20",
   "previous":"https://pokeapi.co/api/v2/pokemon?offset=20&limit=20",
   "results":[
      {
         "name":"zubat",
         "url":"https://pokeapi.co/api/v2/pokemon/41/"
      },
      {
         "name":"golbat",
         "url":"https://pokeapi.co/api/v2/pokemon/42/"
      },
      {
         "name":"oddish",
         "url":"https://pokeapi.co/api/v2/pokemon/43/"
      },
      {
         "name":"gloom",
         "url":"https://pokeapi.co/api/v2/pokemon/44/"
      },
      {
         "name":"vileplume",
         "url":"https://pokeapi.co/api/v2/pokemon/45/"
      },
      {
         "name":"paras",
         "url":"https://pokeapi.co/api/v2/pokemon/46/"
      },
      {
         "name":"parasect",
         "url":"https://pokeapi.co/api/v2/pokemon/47/"
      },
      {
         "name":"venonat",
         "url":"https://pokeapi.co/api/v2/pokemon/48/"
      },
      {
         "name":"venomoth",
         "url":"https://pokeapi.co/api/v2/pokemon/49/"
      },
      {
         "name":"diglett",
         "url":"https://pokeapi.co/api/v2/pokemon/50/"
      },
      {
         "name":"dugtrio",
         "url":"https://pokeapi.co/api/v2/pokemon/51/"
      },
      {
         "name":"meowth",
         "url":"https://pokeapi.co/api/v2/pokemon/52/"
      },
      {
         "name":"persian",
         "url":"https://pokeapi.co/api/v2/pokemon/53/"
      },
      {
         "name":"psyduck",
         "url":"https://pokeapi.co/api/v2/pokemon/54/"
      },
      {
         "name":"golduck",
         "url":"https://pokeapi.co/api/v2/pokemon/55/"
      },
      {
         "name":"mankey",
         "url":"https://pokeapi.co/api/v2/pokemon/56/"
      },
      {
         "name":"primeape",
         "url":"https://pokeapi.co/api/v2/pokemon/57/"
      },
      {
         "name":"growlithe",
         "url":"https://pokeapi.co/api/v2/pokemon/58/"
      },
      {
         "name":"arcanine",
         "url":"https://pokeapi.co/api/v2/pokemon/59/"
      },
      {
         "name":"poliwag",
         "url":"https://pokeapi.co/api/v2/pokemon/60/"
      }
      {
   "count":964,
   "next":"https://pokeapi.co/api/v2/pokemon?offset=80&limit=20",
   "previous":"https://pokeapi.co/api/v2/pokemon?offset=40&limit=20",
   "results":[
      {
         "name":"poliwhirl",
         "url":"https://pokeapi.co/api/v2/pokemon/61/"
      },
      {
         "name":"poliwrath",
         "url":"https://pokeapi.co/api/v2/pokemon/62/"
      },
      {
         "name":"abra",
         "url":"https://pokeapi.co/api/v2/pokemon/63/"
      },
      {
         "name":"kadabra",
         "url":"https://pokeapi.co/api/v2/pokemon/64/"
      },
      {
         "name":"alakazam",
         "url":"https://pokeapi.co/api/v2/pokemon/65/"
      },
      {
         "name":"machop",
         "url":"https://pokeapi.co/api/v2/pokemon/66/"
      },
      {
         "name":"machoke",
         "url":"https://pokeapi.co/api/v2/pokemon/67/"
      },
      {
         "name":"machamp",
         "url":"https://pokeapi.co/api/v2/pokemon/68/"
      },
      {
         "name":"bellsprout",
         "url":"https://pokeapi.co/api/v2/pokemon/69/"
      },
      {
         "name":"weepinbell",
         "url":"https://pokeapi.co/api/v2/pokemon/70/"
      },
      {
         "name":"victreebel",
         "url":"https://pokeapi.co/api/v2/pokemon/71/"
      },
      {
         "name":"tentacool",
         "url":"https://pokeapi.co/api/v2/pokemon/72/"
      },
      {
         "name":"tentacruel",
         "url":"https://pokeapi.co/api/v2/pokemon/73/"
      },
      {
         "name":"geodude",
         "url":"https://pokeapi.co/api/v2/pokemon/74/"
      },
      {
         "name":"graveler",
         "url":"https://pokeapi.co/api/v2/pokemon/75/"
      },
      {
         "name":"golem",
         "url":"https://pokeapi.co/api/v2/pokemon/76/"
      },
      {
         "name":"ponyta",
         "url":"https://pokeapi.co/api/v2/pokemon/77/"
      },
      {
         "name":"rapidash",
         "url":"https://pokeapi.co/api/v2/pokemon/78/"
      },
      {
         "name":"slowpoke",
         "url":"https://pokeapi.co/api/v2/pokemon/79/"
      },
      {
         "name":"slowbro",
         "url":"https://pokeapi.co/api/v2/pokemon/80/"
      }
      {
   "count":964,
   "next":"https://pokeapi.co/api/v2/pokemon?offset=80&limit=20",
   "previous":"https://pokeapi.co/api/v2/pokemon?offset=40&limit=20",
   "results":[
      {
         "name":"poliwhirl",
         "url":"https://pokeapi.co/api/v2/pokemon/61/"
      },
      {
         "name":"poliwrath",
         "url":"https://pokeapi.co/api/v2/pokemon/62/"
      },
      {
         "name":"abra",
         "url":"https://pokeapi.co/api/v2/pokemon/63/"
      },
      {
         "name":"kadabra",
         "url":"https://pokeapi.co/api/v2/pokemon/64/"
      },
      {
         "name":"alakazam",
         "url":"https://pokeapi.co/api/v2/pokemon/65/"
      },
      {
         "name":"machop",
         "url":"https://pokeapi.co/api/v2/pokemon/66/"
      },
      {
         "name":"machoke",
         "url":"https://pokeapi.co/api/v2/pokemon/67/"
      },
      {
         "name":"machamp",
         "url":"https://pokeapi.co/api/v2/pokemon/68/"
      },
      {
         "name":"bellsprout",
         "url":"https://pokeapi.co/api/v2/pokemon/69/"
      },
      {
         "name":"weepinbell",
         "url":"https://pokeapi.co/api/v2/pokemon/70/"
      },
      {
         "name":"victreebel",
         "url":"https://pokeapi.co/api/v2/pokemon/71/"
      },
      {
         "name":"tentacool",
         "url":"https://pokeapi.co/api/v2/pokemon/72/"
      },
      {
         "name":"tentacruel",
         "url":"https://pokeapi.co/api/v2/pokemon/73/"
      },
      {
         "name":"geodude",
         "url":"https://pokeapi.co/api/v2/pokemon/74/"
      },
      {
         "name":"graveler",
         "url":"https://pokeapi.co/api/v2/pokemon/75/"
      },
      {
         "name":"golem",
         "url":"https://pokeapi.co/api/v2/pokemon/76/"
      },
      {
         "name":"ponyta",
         "url":"https://pokeapi.co/api/v2/pokemon/77/"
      },
      {
         "name":"rapidash",
         "url":"https://pokeapi.co/api/v2/pokemon/78/"
      },
      {
         "name":"slowpoke",
         "url":"https://pokeapi.co/api/v2/pokemon/79/"
      },
      {
         "name":"slowbro",
         "url":"https://pokeapi.co/api/v2/pokemon/80/"
      }
      {
   "count":964,
   "next":"https://pokeapi.co/api/v2/pokemon?offset=120&limit=20",
   "previous":"https://pokeapi.co/api/v2/pokemon?offset=80&limit=20",
   "results":[
      {
         "name":"electrode",
         "url":"https://pokeapi.co/api/v2/pokemon/101/"
      },
      {
         "name":"exeggcute",
         "url":"https://pokeapi.co/api/v2/pokemon/102/"
      },
      {
         "name":"exeggutor",
         "url":"https://pokeapi.co/api/v2/pokemon/103/"
      },
      {
         "name":"cubone",
         "url":"https://pokeapi.co/api/v2/pokemon/104/"
      },
      {
         "name":"marowak",
         "url":"https://pokeapi.co/api/v2/pokemon/105/"
      },
      {
         "name":"hitmonlee",
         "url":"https://pokeapi.co/api/v2/pokemon/106/"
      },
      {
         "name":"hitmonchan",
         "url":"https://pokeapi.co/api/v2/pokemon/107/"
      },
      {
         "name":"lickitung",
         "url":"https://pokeapi.co/api/v2/pokemon/108/"
      },
      {
         "name":"koffing",
         "url":"https://pokeapi.co/api/v2/pokemon/109/"
      },
      {
         "name":"weezing",
         "url":"https://pokeapi.co/api/v2/pokemon/110/"
      },
      {
         "name":"rhyhorn",
         "url":"https://pokeapi.co/api/v2/pokemon/111/"
      },
      {
         "name":"rhydon",
         "url":"https://pokeapi.co/api/v2/pokemon/112/"
      },
      {
         "name":"chansey",
         "url":"https://pokeapi.co/api/v2/pokemon/113/"
      },
      {
         "name":"tangela",
         "url":"https://pokeapi.co/api/v2/pokemon/114/"
      },
      {
         "name":"kangaskhan",
         "url":"https://pokeapi.co/api/v2/pokemon/115/"
      },
      {
         "name":"horsea",
         "url":"https://pokeapi.co/api/v2/pokemon/116/"
      },
      {
         "name":"seadra",
         "url":"https://pokeapi.co/api/v2/pokemon/117/"
      },
      {
         "name":"goldeen",
         "url":"https://pokeapi.co/api/v2/pokemon/118/"
      },
      {
         "name":"seaking",
         "url":"https://pokeapi.co/api/v2/pokemon/119/"
      },
      {
         "name":"staryu",
         "url":"https://pokeapi.co/api/v2/pokemon/120/"
      }
      {
   "count":964,
   "next":"https://pokeapi.co/api/v2/pokemon?offset=140&limit=20",
   "previous":"https://pokeapi.co/api/v2/pokemon?offset=100&limit=20",
   "results":[
      {
         "name":"starmie",
         "url":"https://pokeapi.co/api/v2/pokemon/121/"
      },
      {
         "name":"mr-mime",
         "url":"https://pokeapi.co/api/v2/pokemon/122/"
      },
      {
         "name":"scyther",
         "url":"https://pokeapi.co/api/v2/pokemon/123/"
      },
      {
         "name":"jynx",
         "url":"https://pokeapi.co/api/v2/pokemon/124/"
      },
      {
         "name":"electabuzz",
         "url":"https://pokeapi.co/api/v2/pokemon/125/"
      },
      {
         "name":"magmar",
         "url":"https://pokeapi.co/api/v2/pokemon/126/"
      },
      {
         "name":"pinsir",
         "url":"https://pokeapi.co/api/v2/pokemon/127/"
      },
      {
         "name":"tauros",
         "url":"https://pokeapi.co/api/v2/pokemon/128/"
      },
      {
         "name":"magikarp",
         "url":"https://pokeapi.co/api/v2/pokemon/129/"
      },
      {
         "name":"gyarados",
         "url":"https://pokeapi.co/api/v2/pokemon/130/"
      },
      {
         "name":"lapras",
         "url":"https://pokeapi.co/api/v2/pokemon/131/"
      },
      {
         "name":"ditto",
         "url":"https://pokeapi.co/api/v2/pokemon/132/"
      },
      {
         "name":"eevee",
         "url":"https://pokeapi.co/api/v2/pokemon/133/"
      },
      {
         "name":"vaporeon",
         "url":"https://pokeapi.co/api/v2/pokemon/134/"
      },
      {
         "name":"jolteon",
         "url":"https://pokeapi.co/api/v2/pokemon/135/"
      },
      {
         "name":"flareon",
         "url":"https://pokeapi.co/api/v2/pokemon/136/"
      },
      {
         "name":"porygon",
         "url":"https://pokeapi.co/api/v2/pokemon/137/"
      },
      {
         "name":"omanyte",
         "url":"https://pokeapi.co/api/v2/pokemon/138/"
      },
      {
         "name":"omastar",
         "url":"https://pokeapi.co/api/v2/pokemon/139/"
      },
      {
         "name":"kabuto",
         "url":"https://pokeapi.co/api/v2/pokemon/140/"
      }
      
   ]
}
   ]
}
   ]
}
 
